Explore OpenData on data.govmu.org using R - rahul thakoor
…
Explore all datasets

After establishing connection with the open data platform, we can start explopring. First, let’s get all the datasets:

#load datasets
datasets <- list_nodes_all(filters = c(type="dataset"))

#view a snapshot
datasets

Viewing the datasets gives the following output

# A tibble: 100 x 16
   nid   vid   type   language title      uid   status created changed comment
 * <chr> <chr> <chr>  <chr>    <chr>      <chr> <chr>  <chr>   <chr>   <chr>  
 1 523   1026  datas~ und      List of S~ 5     1      152445~ 152446~ 0      
 2 519   1021  datas~ und      List of S~ 5     1      152445~ 152445~ 0      
 3 516   1017  datas~ und      List of P~ 5     1      152445~ 152445~ 0      
 4 513   1027  datas~ und      List of P~ 5     1      152436~ 152446~ 0      
 5 510   1063  datas~ und      List of S~ 5     1      152436~ 152482~ 0      
 6 507   1062  datas~ und      List of Y~ 5     1      152429~ 152482~ 0      
 7 504   978   datas~ und      List of P~ 5     1      152429~ 152429~ 0      
 8 501   969   datas~ und      Primary E~ 6     1      152422~ 152423~ 0      
 9 498   967   datas~ und      "Number o~ 6     1      152422~ 152423~ 0      
10 495   965   datas~ und      Number of~ 6     1      152422~ 152423~ 0      
# ... with 90 more rows, and 6 more variables: promote <chr>, sticky <chr>,
#   tnid <chr>, translate <chr>, uuid <chr>, uri <chr>
…
